34 . tidyr 솜씨있게 조작 | 데이터 과학을 지탱하는 기본기
…
gap_long <- gap_long %>% separate(obstype_year,into=c('obs_type','year'),sep="_")
gap_long$year <- as.integer(gap_long$year)

34.4 도전 과제 2

gap_long을 사용해서, 각 대륙별로 평균 기대수명, 인구, 1인당 GDP를 계산한다.
힌트: dplyr 수업에서 학습한 group_by() 와 summarize() 함수를 사용한다.

도전과제 2 에 대한 해답

gap_long %>% group_by(continent,obs_type) %>%
   summarize(means=mean(obs_values))

## # A tibble: 15 × 3
## # Groups:   continent [5]
##   continent obs_type       means
##   <chr>     <chr>          <dbl>
## 1 Africa    gdpPercap     2194. 
## 2 Africa    lifeExp         48.9
## 3 Africa    pop        9916003. 
## 4 Americas  gdpPercap     7136. 
## 5 Americas  lifeExp         64.7
## 6 Americas  pop       24504795. 
## # … with 9 more rows
…
